Mon Jun 10 11:15:01 EEST 2024
[7l----total-cpu-usage---- -dsk/total- -net/total- ---paging-- ---system-- ---load-avg---
usr sys idl wai hiq siq| read  writ| recv  send|  in   out | int   csw | 1m   5m  15m 
  6   4  84   6   0   1|1930k 2383k|   0     0 | 159k   93k|6273  5438 |0.36 0.54 0.77
 16   4  80   0   0   0|4915B   55k|  36k   12k|   0     0 |3137  1817 |0.33 0.54 0.77
  0   0 100   0   0   0|   0    29k|  21k   45B|   0     0 | 224   399 |0.30 0.53 0.77
  5   1  94   0   0   0|  10k  113k|  42k   18k|   0     0 | 958   686 |0.28 0.52 0.76
  2   0  98   0   0   0|1638B   71k|  20k  153B|1638B    0 | 468   484 |0.26 0.51 0.76
  9   3  88   0   0   0| 819B  104k|1945k   49k| 819B    0 |2574  2063 |0.31 0.52 0.76
 10   3  87   0   0   0|1638B   62k|  28k  124B|1638B    0 |2122  1276 |0.29 0.51 0.75
  7   2  90   0   0   0|  26k   77k|  70k   24k|   0     0 |1809  1305 |0.27 0.50 0.75
  0   0  99   0   0   0| 250k   79k|  40k  225k|   0     0 | 582   592 |0.25 0.49 0.75
  1   0  99   0   0   0|  61k  101k|  50k   62k|   0     0 | 445   595 |0.23 0.48 0.74
  0   0  99   0   0   0| 124k   17k|  31k  127k|   0     0 | 459   537 |0.21 0.48 0.74
  2   1  97   0   0   0| 274k  106k|  39k  283k|   0     0 | 836   785 |0.19 0.47 0.74
 15   4  81   0   0   0|  99k   32k|1980k  132k|   0     0 |3709  2462 |0.18 0.46 0.73
 11   3  85   0   0   0|  29k  136k|  46k   33k|   0     0 |2424  1472 |0.32 0.49 0.74
  0   0  99   0   0   0| 503k   74k|  50k  328k|   0     0 | 602   622 |0.30 0.48 0.73
  1   0  99   0   0   0|1946k   82k| 223k 1994k| 819B    0 |1459   749 |0.27 0.47 0.73
  1   1  99   0   0   0|3277k   60k| 186k 3356k|   0     0 |1817   893 |0.25 0.46 0.73
  1   1  98   0   0   0|4686k   49k| 246k 4888k|   0     0 |2048  1028 |0.23 0.45 0.72
 10   3  86   0   0   0|4302k   31k|2137k 4378k|   0     0 |4246  2386 |0.37 0.48 0.73
 13   4  82   0   0   0|3662k   27k| 197k 3701k|   0     0 |4075  1908 |0.50 0.50 0.74
  8   3  89   0   0   0|6837k   96k| 361k 6898k|   0     0 |3343  1909 |0.46 0.50 0.73
Mon Jun 10 11:16:41 EEST 2024
